{
  "contacts": [
    {
      "name": "Имя1",
      "surname": "Фамилия1",
      "telephone": "(111) 111-1111",
      "id": 1
    },
    {
      "name": "Имя2",
      "surname": "Фамилия2",
      "telephone": "(222) 222-2222",
      "id": 2
    }
  ]
}